Upsampling/simulation/qsim/Upsampling.msim.vcd
$comment
	File created using the following command:
		vcd file Upsampling.msim.vcd -direction
$end
$date
	Mon Dec 03 15:23:32 2018
$end
$version
	ModelSim Version 10.1d
$end
$timescale
	1ps
$end
$scope module Upsampling_vlg_vec_tst $end
$var reg 1 ! clk $end
$var reg 1 " reset $end
$var reg 8 # sampleIn [7:0] $end
$var reg 1 $ start $end
$var wire 1 % newLine $end
$var wire 1 & sampleOut1 [7] $end
$var wire 1 ' sampleOut1 [6] $end
$var wire 1 ( sampleOut1 [5] $end
$var wire 1 ) sampleOut1 [4] $end
$var wire 1 * sampleOut1 [3] $end
$var wire 1 + sampleOut1 [2] $end
$var wire 1 , sampleOut1 [1] $end
$var wire 1 - sampleOut1 [0] $end
$var wire 1 . sampleOut2 [7] $end
$var wire 1 / sampleOut2 [6] $end
$var wire 1 0 sampleOut2 [5] $end
$var wire 1 1 sampleOut2 [4] $end
$var wire 1 2 sampleOut2 [3] $end
$var wire 1 3 sampleOut2 [2] $end
$var wire 1 4 sampleOut2 [1] $end
$var wire 1 5 sampleOut2 [0] $end
$var wire 1 6 valido $end
$var wire 1 7 sampler $end
$scope module i1 $end
$var wire 1 8 gnd $end
$var wire 1 9 vcc $end
$var wire 1 : unknown $end
$var tri1 1 ; devclrn $end
$var tri1 1 < devpor $end
$var tri1 1 = devoe $end
$var wire 1 > Interpolador1|Add0~2_combout $end
$var wire 1 ? Interpolador1|Add1~9 $end
$var wire 1 @ Interpolador1|Add1~10_combout $end
$var wire 1 A Interpolador1|Add1~11 $end
$var wire 1 B Interpolador1|Add1~12_combout $end
$var wire 1 C Interpolador1|Add1~13 $end
$var wire 1 D Interpolador1|Add1~14_combout $end
$var wire 1 E Interpolador1|Add1~15 $end
$var wire 1 F Interpolador1|Add1~16_combout $end
$var wire 1 G Interpolador1|Add6~0_combout $end
$var wire 1 H Interpolador1|Add6~6_combout $end
$var wire 1 I Interpolador1|Add6~8_combout $end
$var wire 1 J Interpolador1|Add7~0_combout $end
$var wire 1 K Interpolador1|Add7~2_combout $end
$var wire 1 L Interpolador1|Add8~6_combout $end
$var wire 1 M Interpolador1|Add9~0_combout $end
$var wire 1 N Interpolador1|Add9~6_combout $end
$var wire 1 O Interpolador1|Add6~12_combout $end
$var wire 1 P Interpolador1|Add7~8_combout $end
$var wire 1 Q Interpolador1|II[2]~6_combout $end
$var wire 1 R Interpolador1|II[3]~8_combout $end
$var wire 1 S Interpolador1|II[4]~10_combout $end
$var wire 1 T Interpolador1|HH[4]~4_combout $end
$var wire 1 U Interpolador1|HH[5]~6_combout $end
$var wire 1 V Interpolador1|FF[2]~6_combout $end
$var wire 1 W Interpolador1|FF[3]~8_combout $end
$var wire 1 X Interpolador1|FF[5]~12_combout $end
$var wire 1 Y Interpolador1|GG[5]~6_combout $end
$var wire 1 Z Interpolador1|II[6]~14_combout $end
$var wire 1 [ Interpolador1|GG[6]~9 $end
$var wire 1 \ Interpolador1|GG[7]~10_combout $end
$var wire 1 ] Interpolador1|Equal0~4_combout $end
$var wire 1 ^ Interpolador1|auxInicioImagem~0_combout $end
$var wire 1 _ Interpolador1|auxTrocaLinha~0_combout $end
$var wire 1 ` Interpolador1|auxEndereco[0]~12_combout $end
$var wire 1 a Interpolador1|Equal0~6_combout $end
$var wire 1 b Interpolador1|auxInicioImagem[5]~7_combout $end
$var wire 1 c Interpolador1|auxInicioImagem[6]~8_combout $end
$var wire 1 d Interpolador1|auxInicioImagem[7]~9_combout $end
$var wire 1 e Interpolador1|auxInicioImagem[8]~10_combout $end
$var wire 1 f Interpolador1|HH[4]~feeder_combout $end
$var wire 1 g Passador1|saida5[6]~feeder_combout $end
$var wire 1 h Interpolador1|JJ[6]~feeder_combout $end
$var wire 1 i Passador1|in2[7]~feeder_combout $end
$var wire 1 j Interpolador1|JJ[7]~feeder_combout $end
$var wire 1 k Passador1|saida4[7]~feeder_combout $end
$var wire 1 l Interpolador1|Add0~0_combout $end
$var wire 1 m Interpolador1|auxTrocaLinha~2_combout $end
$var wire 1 n start~combout $end
$var wire 1 o auxInicio~combout $end
$var wire 1 p Interpolador1|processing~0_combout $end
$var wire 1 q Interpolador1|processing~regout $end
$var wire 1 r Interpolador1|Add1~0_combout $end
$var wire 1 s Interpolador1|auxInicioImagem[0]~2_combout $end
$var wire 1 t Interpolador1|Equal0~2_combout $end
$var wire 1 u Interpolador1|EE[0]~0_combout $end
$var wire 1 v Interpolador1|auxTrocaLinha~1_combout $end
$var wire 1 w Interpolador1|Add0~1 $end
$var wire 1 x Interpolador1|Add0~3 $end
$var wire 1 y Interpolador1|Add0~4_combout $end
$var wire 1 z Interpolador1|auxTrocaLinha~3_combout $end
$var wire 1 { Interpolador1|Add0~5 $end
$var wire 1 | Interpolador1|Add0~6_combout $end
$var wire 1 } Interpolador1|Equal1~0_combout $end
$var wire 1 ~ Interpolador1|auxTrocaLinha~7_combout $end
$var wire 1 !! Interpolador1|auxTrocaLinha~6_combout $end
$var wire 1 "! Interpolador1|Add0~7 $end
$var wire 1 #! Interpolador1|Add0~8_combout $end
$var wire 1 $! Interpolador1|auxTrocaLinha~4_combout $end
$var wire 1 %! Interpolador1|Add0~9 $end
$var wire 1 &! Interpolador1|Add0~10_combout $end
$var wire 1 '! Interpolador1|auxTrocaLinha~5_combout $end
$var wire 1 (! Interpolador1|Add0~11 $end
$var wire 1 )! Interpolador1|Add0~13 $end
$var wire 1 *! Interpolador1|Add0~14_combout $end
$var wire 1 +! Interpolador1|Add0~12_combout $end
$var wire 1 ,! Interpolador1|Equal1~1_combout $end
$var wire 1 -! Interpolador1|auxTrocaLinha~8_combout $end
$var wire 1 .! Interpolador1|Add0~15 $end
$var wire 1 /! Interpolador1|Add0~16_combout $end
$var wire 1 0! Interpolador1|auxInicioImagem[5]~1_combout $end
$var wire 1 1! Interpolador1|Add1~1 $end
$var wire 1 2! Interpolador1|Add1~2_combout $end
$var wire 1 3! Interpolador1|auxInicioImagem[1]~3_combout $end
$var wire 1 4! Interpolador1|Add1~3 $end
$var wire 1 5! Interpolador1|Add1~4_combout $end
$var wire 1 6! Interpolador1|auxInicioImagem[2]~4_combout $end
$var wire 1 7! Interpolador1|Add1~5 $end
$var wire 1 8! Interpolador1|Add1~6_combout $end
$var wire 1 9! Interpolador1|auxInicioImagem[3]~5_combout $end
$var wire 1 :! Interpolador1|Add1~7 $end
$var wire 1 ;! Interpolador1|Add1~8_combout $end
$var wire 1 <! Interpolador1|auxInicioImagem[4]~6_combout $end
$var wire 1 =! Interpolador1|Equal0~3_combout $end
$var wire 1 >! Interpolador1|inicioImagem~0_combout $end
$var wire 1 ?! Interpolador1|inicioImagem~regout $end
$var wire 1 @! proximo_estado~0_combout $end
$var wire 1 A! reset~combout $end
$var wire 1 B! estado_atual~regout $end
$var wire 1 C! Interpolador1|trocaLinha~0_combout $end
$var wire 1 D! Interpolador1|trocaLinha~regout $end
$var wire 1 E! newLine~0_combout $end
$var wire 1 F! Interpolador1|valido~regout $end
$var wire 1 G! valido~0_combout $end
$var wire 1 H! clk~combout $end
$var wire 1 I! clk~clkctrl_outclk $end
$var wire 1 J! Interpolador1|auxEndereco[0]~10_combout $end
$var wire 1 K! Interpolador1|Equal0~5_combout $end
$var wire 1 L! Interpolador1|auxEndereco[0]~11 $end
$var wire 1 M! Interpolador1|auxEndereco[1]~16_combout $end
$var wire 1 N! Interpolador1|auxEndereco[1]~17 $end
$var wire 1 O! Interpolador1|auxEndereco[2]~19 $end
$var wire 1 P! Interpolador1|auxEndereco[3]~20_combout $end
$var wire 1 Q! Interpolador1|auxEndereco[3]~21 $end
$var wire 1 R! Interpolador1|auxEndereco[4]~23 $end
$var wire 1 S! Interpolador1|auxEndereco[5]~25 $end
$var wire 1 T! Interpolador1|auxEndereco[6]~26_combout $end
$var wire 1 U! Interpolador1|auxEndereco[6]~27 $end
$var wire 1 V! Interpolador1|auxEndereco[7]~28_combout $end
$var wire 1 W! Interpolador1|auxEndereco[5]~24_combout $end
$var wire 1 X! Interpolador1|auxEndereco[0]~13_combout $end
$var wire 1 Y! Interpolador1|auxEndereco[7]~29 $end
$var wire 1 Z! Interpolador1|auxEndereco[8]~30_combout $end
$var wire 1 [! Interpolador1|auxEndereco[8]~31 $end
$var wire 1 \! Interpolador1|auxEndereco[9]~32_combout $end
$var wire 1 ]! Interpolador1|auxEndereco[0]~14_combout $end
$var wire 1 ^! Interpolador1|auxEndereco[0]~15_combout $end
$var wire 1 _! Interpolador1|endereco[0]~feeder_combout $end
$var wire 1 `! Interpolador1|auxEndereco[2]~18_combout $end
$var wire 1 a! Interpolador1|endereco[3]~feeder_combout $end
$var wire 1 b! Interpolador1|auxEndereco[4]~22_combout $end
$var wire 1 c! Interpolador1|endereco[4]~feeder_combout $end
$var wire 1 d! Interpolador1|endereco[5]~feeder_combout $end
$var wire 1 e! Interpolador1|endereco[6]~feeder_combout $end
$var wire 1 f! Interpolador1|endereco[7]~feeder_combout $end
$var wire 1 g! Interpolador1|endereco[8]~feeder_combout $end
$var wire 1 h! Passador1|saida0[0]~feeder_combout $end
$var wire 1 i! sampleOut1~0_combout $end
$var wire 1 j! sampleOut1~1_combout $end
$var wire 1 k! sampleOut1~2_combout $end
$var wire 1 l! Passador1|saida0[3]~feeder_combout $end
$var wire 1 m! sampleOut1~3_combout $end
$var wire 1 n! Passador1|saida0[4]~feeder_combout $end
$var wire 1 o! Interpolador1|EE[4]~feeder_combout $end
$var wire 1 p! sampleOut1~4_combout $end
$var wire 1 q! sampleOut1~5_combout $end
$var wire 1 r! Passador1|saida0[6]~feeder_combout $end
$var wire 1 s! Interpolador1|EE[6]~feeder_combout $end
$var wire 1 t! sampleOut1~6_combout $end
$var wire 1 u! Interpolador1|EE[7]~feeder_combout $end
$var wire 1 v! sampleOut1~7_combout $end
$var wire 1 w! Passador1|saida2[3]~feeder_combout $end
$var wire 1 x! Passador1|saida3[3]~feeder_combout $end
$var wire 1 y! Passador1|saida2[2]~feeder_combout $end
$var wire 1 z! Passador1|saida3[2]~feeder_combout $end
$var wire 1 {! Interpolador1|II[2]~7 $end
$var wire 1 |! Interpolador1|II[3]~9 $end
$var wire 1 }! Interpolador1|II[4]~11 $end
$var wire 1 ~! Interpolador1|II[5]~12_combout $end
$var wire 1 !" Interpolador1|GG[4]~4_combout $end
$var wire 1 "" Passador1|saida2[1]~feeder_combout $end
$var wire 1 #" Interpolador1|Add6~1 $end
$var wire 1 $" Interpolador1|Add6~3 $end
$var wire 1 %" Interpolador1|Add6~4_combout $end
$var wire 1 &" Interpolador1|Add7~1 $end
$var wire 1 '" Interpolador1|Add7~3 $end
$var wire 1 (" Interpolador1|Add7~4_combout $end
$var wire 1 )" Passador1|saida3[0]~feeder_combout $end
$var wire 1 *" Interpolador1|Add8~1 $end
$var wire 1 +" Interpolador1|Add8~3 $end
$var wire 1 ," Interpolador1|Add8~4_combout $end
$var wire 1 -" Interpolador1|Add8~2_combout $end
$var wire 1 ." Interpolador1|Add8~0_combout $end
$var wire 1 /" Interpolador1|Add6~2_combout $end
$var wire 1 0" Interpolador1|Add9~1 $end
$var wire 1 1" Interpolador1|Add9~3 $end
$var wire 1 2" Interpolador1|Add9~5 $end
$var wire 1 3" Interpolador1|Add9~7 $end
$var wire 1 4" Interpolador1|Add9~9 $end
$var wire 1 5" Interpolador1|Add9~10_combout $end
$var wire 1 6" Interpolador1|Add9~8_combout $end
$var wire 1 7" Interpolador1|Add9~4_combout $end
$var wire 1 8" Interpolador1|Add9~2_combout $end
$var wire 1 9" Interpolador1|aux[5]~4_cout $end
$var wire 1 :" Interpolador1|aux[5]~6_cout $end
$var wire 1 ;" Interpolador1|aux[5]~8_cout $end
$var wire 1 <" Interpolador1|aux[5]~10_cout $end
$var wire 1 =" Interpolador1|aux[5]~12_cout $end
$var wire 1 >" Interpolador1|aux[5]~13_combout $end
$var wire 1 ?" sampleOut2~0_combout $end
$var wire 1 @" Passador1|saida1[4]~feeder_combout $end
$var wire 1 A" Passador1|saida3[4]~feeder_combout $end
$var wire 1 B" Interpolador1|HH[4]~5 $end
$var wire 1 C" Interpolador1|HH[5]~7 $end
$var wire 1 D" Interpolador1|HH[6]~8_combout $end
$var wire 1 E" Interpolador1|FF[2]~7 $end
$var wire 1 F" Interpolador1|FF[3]~9 $end
$var wire 1 G" Interpolador1|FF[4]~10_combout $end
$var wire 1 H" Interpolador1|Add6~5 $end
$var wire 1 I" Interpolador1|Add6~7 $end
$var wire 1 J" Interpolador1|Add6~9 $end
$var wire 1 K" Interpolador1|Add6~10_combout $end
$var wire 1 L" Interpolador1|Add7~5 $end
$var wire 1 M" Interpolador1|Add7~6_combout $end
$var wire 1 N" Interpolador1|Add8~5 $end
$var wire 1 O" Interpolador1|Add8~7 $end
$var wire 1 P" Interpolador1|Add8~8_combout $end
$var wire 1 Q" Interpolador1|Add9~11 $end
$var wire 1 R" Interpolador1|Add9~12_combout $end
$var wire 1 S" Interpolador1|aux[5]~14 $end
$var wire 1 T" Interpolador1|aux[6]~15_combout $end
$var wire 1 U" sampleOut2~1_combout $end
$var wire 1 V" Passador1|saida1[5]~feeder_combout $end
$var wire 1 W" Passador1|saida3[5]~feeder_combout $end
$var wire 1 X" Passador1|saida1[6]~feeder_combout $end
$var wire 1 Y" Passador1|in2[6]~feeder_combout $end
$var wire 1 Z" Interpolador1|II[5]~13 $end
$var wire 1 [" Interpolador1|II[6]~15 $end
$var wire 1 \" Interpolador1|II[7]~16_combout $end
$var wire 1 ]" Interpolador1|HH[6]~9 $end
$var wire 1 ^" Interpolador1|HH[7]~10_combout $end
$var wire 1 _" Interpolador1|FF[4]~11 $end
$var wire 1 `" Interpolador1|FF[5]~13 $end
$var wire 1 a" Interpolador1|FF[6]~15 $end
$var wire 1 b" Interpolador1|FF[7]~16_combout $end
$var wire 1 c" Interpolador1|FF[6]~14_combout $end
$var wire 1 d" Interpolador1|Add6~11 $end
$var wire 1 e" Interpolador1|Add6~13 $end
$var wire 1 f" Interpolador1|Add6~14_combout $end
$var wire 1 g" Interpolador1|GG[4]~5 $end
$var wire 1 h" Interpolador1|GG[5]~7 $end
$var wire 1 i" Interpolador1|GG[6]~8_combout $end
$var wire 1 j" Interpolador1|Add7~7 $end
$var wire 1 k" Interpolador1|Add7~9 $end
$var wire 1 l" Interpolador1|Add7~10_combout $end
$var wire 1 m" Interpolador1|Add8~9 $end
$var wire 1 n" Interpolador1|Add8~10_combout $end
$var wire 1 o" Interpolador1|Add9~13 $end
$var wire 1 p" Interpolador1|Add9~14_combout $end
$var wire 1 q" Interpolador1|aux[6]~16 $end
$var wire 1 r" Interpolador1|aux[7]~17_combout $end
$var wire 1 s" sampleOut2~2_combout $end
$var wire 1 t" RegBank|altsyncram_component|auto_generated|q_a [7] $end
$var wire 1 u" RegBank|altsyncram_component|auto_generated|q_a [6] $end
$var wire 1 v" RegBank|altsyncram_component|auto_generated|q_a [5] $end
$var wire 1 w" RegBank|altsyncram_component|auto_generated|q_a [4] $end
$var wire 1 x" RegBank|altsyncram_component|auto_generated|q_a [3] $end
$var wire 1 y" RegBank|altsyncram_component|auto_generated|q_a [2] $end
$var wire 1 z" RegBank|altsyncram_component|auto_generated|q_a [1] $end
$var wire 1 {" RegBank|altsyncram_component|auto_generated|q_a [0] $end
$var wire 1 |" Interpolador1|endereco [9] $end
$var wire 1 }" Interpolador1|endereco [8] $end
$var wire 1 ~" Interpolador1|endereco [7] $end
$var wire 1 !# Interpolador1|endereco [6] $end
$var wire 1 "# Interpolador1|endereco [5] $end
$var wire 1 ## Interpolador1|endereco [4] $end
$var wire 1 $# Interpolador1|endereco [3] $end
$var wire 1 %# Interpolador1|endereco [2] $end
$var wire 1 &# Interpolador1|endereco [1] $end
$var wire 1 '# Interpolador1|endereco [0] $end
$var wire 1 (# Interpolador1|auxTrocaLinha [8] $end
$var wire 1 )# Interpolador1|auxTrocaLinha [7] $end
$var wire 1 *# Interpolador1|auxTrocaLinha [6] $end
$var wire 1 +# Interpolador1|auxTrocaLinha [5] $end
$var wire 1 ,# Interpolador1|auxTrocaLinha [4] $end
$var wire 1 -# Interpolador1|auxTrocaLinha [3] $end
$var wire 1 .# Interpolador1|auxTrocaLinha [2] $end
$var wire 1 /# Interpolador1|auxTrocaLinha [1] $end
$var wire 1 0# Interpolador1|auxTrocaLinha [0] $end
$var wire 1 1# Interpolador1|auxInicioImagem [8] $end
$var wire 1 2# Interpolador1|auxInicioImagem [7] $end
$var wire 1 3# Interpolador1|auxInicioImagem [6] $end
$var wire 1 4# Interpolador1|auxInicioImagem [5] $end
$var wire 1 5# Interpolador1|auxInicioImagem [4] $end
$var wire 1 6# Interpolador1|auxInicioImagem [3] $end
$var wire 1 7# Interpolador1|auxInicioImagem [2] $end
$var wire 1 8# Interpolador1|auxInicioImagem [1] $end
$var wire 1 9# Interpolador1|auxInicioImagem [0] $end
$var wire 1 :# Interpolador1|auxEndereco [9] $end
$var wire 1 ;# Interpolador1|auxEndereco [8] $end
$var wire 1 <# Interpolador1|auxEndereco [7] $end
$var wire 1 =# Interpolador1|auxEndereco [6] $end
$var wire 1 ># Interpolador1|auxEndereco [5] $end
$var wire 1 ?# Interpolador1|auxEndereco [4] $end
$var wire 1 @# Interpolador1|auxEndereco [3] $end
$var wire 1 A# Interpolador1|auxEndereco [2] $end
$var wire 1 B# Interpolador1|auxEndereco [1] $end
$var wire 1 C# Interpolador1|auxEndereco [0] $end
$var wire 1 D# Interpolador1|aux [7] $end
$var wire 1 E# Interpolador1|aux [6] $end
$var wire 1 F# Interpolador1|aux [5] $end
$var wire 1 G# Interpolador1|aux [4] $end
$var wire 1 H# Interpolador1|aux [3] $end
$var wire 1 I# Interpolador1|aux [2] $end
$var wire 1 J# Interpolador1|aux [1] $end
$var wire 1 K# Interpolador1|aux [0] $end
$var wire 1 L# Interpolador1|amostraOUT2 [7] $end
$var wire 1 M# Interpolador1|amostraOUT2 [6] $end
$var wire 1 N# Interpolador1|amostraOUT2 [5] $end
$var wire 1 O# Interpolador1|amostraOUT2 [4] $end
$var wire 1 P# Interpolador1|amostraOUT2 [3] $end
$var wire 1 Q# Interpolador1|amostraOUT2 [2] $end
$var wire 1 R# Interpolador1|amostraOUT2 [1] $end
$var wire 1 S# Interpolador1|amostraOUT2 [0] $end
$var wire 1 T# Interpolador1|JJ [7] $end
$var wire 1 U# Interpolador1|JJ [6] $end
$var wire 1 V# Interpolador1|JJ [5] $end
$var wire 1 W# Interpolador1|JJ [4] $end
$var wire 1 X# Interpolador1|JJ [3] $end
$var wire 1 Y# Interpolador1|JJ [2] $end
$var wire 1 Z# Interpolador1|JJ [1] $end
$var wire 1 [# Interpolador1|JJ [0] $end
$var wire 1 \# Interpolador1|II [7] $end
$var wire 1 ]# Interpolador1|II [6] $end
$var wire 1 ^# Interpolador1|II [5] $end
$var wire 1 _# Interpolador1|II [4] $end
$var wire 1 `# Interpolador1|II [3] $end
$var wire 1 a# Interpolador1|II [2] $end
$var wire 1 b# Interpolador1|II [1] $end
$var wire 1 c# Interpolador1|II [0] $end
$var wire 1 d# Interpolador1|HH [7] $end
$var wire 1 e# Interpolador1|HH [6] $end
$var wire 1 f# Interpolador1|HH [5] $end
$var wire 1 g# Interpolador1|HH [4] $end
$var wire 1 h# Interpolador1|HH [3] $end
$var wire 1 i# Interpolador1|HH [2] $end
$var wire 1 j# Interpolador1|HH [1] $end
$var wire 1 k# Interpolador1|HH [0] $end
$var wire 1 l# Interpolador1|GG [7] $end
$var wire 1 m# Interpolador1|GG [6] $end
$var wire 1 n# Interpolador1|GG [5] $end
$var wire 1 o# Interpolador1|GG [4] $end
$var wire 1 p# Interpolador1|GG [3] $end
$var wire 1 q# Interpolador1|GG [2] $end
$var wire 1 r# Interpolador1|GG [1] $end
$var wire 1 s# Interpolador1|GG [0] $end
$var wire 1 t# Interpolador1|FF [7] $end
$var wire 1 u# Interpolador1|FF [6] $end
$var wire 1 v# Interpolador1|FF [5] $end
$var wire 1 w# Interpolador1|FF [4] $end
$var wire 1 x# Interpolador1|FF [3] $end
$var wire 1 y# Interpolador1|FF [2] $end
$var wire 1 z# Interpolador1|FF [1] $end
$var wire 1 {# Interpolador1|FF [0] $end
$var wire 1 |# Interpolador1|EE [7] $end
$var wire 1 }# Interpolador1|EE [6] $end
$var wire 1 ~# Interpolador1|EE [5] $end
$var wire 1 !$ Interpolador1|EE [4] $end
$var wire 1 "$ Interpolador1|EE [3] $end
$var wire 1 #$ Interpolador1|EE [2] $end
$var wire 1 $$ Interpolador1|EE [1] $end
$var wire 1 %$ Interpolador1|EE [0] $end
$var wire 1 &$ Passador1|saida5 [7] $end
$var wire 1 '$ Passador1|saida5 [6] $end
$var wire 1 ($ Passador1|saida5 [5] $end
$var wire 1 )$ Passador1|saida5 [4] $end
$var wire 1 *$ Passador1|saida5 [3] $end
$var wire 1 +$ Passador1|saida5 [2] $end
$var wire 1 ,$ Passador1|saida5 [1] $end
$var wire 1 -$ Passador1|saida5 [0] $end
$var wire 1 .$ Passador1|saida4 [7] $end
$var wire 1 /$ Passador1|saida4 [6] $end
$var wire 1 0$ Passador1|saida4 [5] $end
$var wire 1 1$ Passador1|saida4 [4] $end
$var wire 1 2$ Passador1|saida4 [3] $end
$var wire 1 3$ Passador1|saida4 [2] $end
$var wire 1 4$ Passador1|saida4 [1] $end
$var wire 1 5$ Passador1|saida4 [0] $end
$var wire 1 6$ Passador1|saida3 [7] $end
$var wire 1 7$ Passador1|saida3 [6] $end
$var wire 1 8$ Passador1|saida3 [5] $end
$var wire 1 9$ Passador1|saida3 [4] $end
$var wire 1 :$ Passador1|saida3 [3] $end
$var wire 1 ;$ Passador1|saida3 [2] $end
$var wire 1 <$ Passador1|saida3 [1] $end
$var wire 1 =$ Passador1|saida3 [0] $end
$var wire 1 >$ Passador1|saida2 [7] $end
$var wire 1 ?$ Passador1|saida2 [6] $end
$var wire 1 @$ Passador1|saida2 [5] $end
$var wire 1 A$ Passador1|saida2 [4] $end
$var wire 1 B$ Passador1|saida2 [3] $end
$var wire 1 C$ Passador1|saida2 [2] $end
$var wire 1 D$ Passador1|saida2 [1] $end
$var wire 1 E$ Passador1|saida2 [0] $end
$var wire 1 F$ Passador1|saida1 [7] $end
$var wire 1 G$ Passador1|saida1 [6] $end
$var wire 1 H$ Passador1|saida1 [5] $end
$var wire 1 I$ Passador1|saida1 [4] $end
$var wire 1 J$ Passador1|saida1 [3] $end
$var wire 1 K$ Passador1|saida1 [2] $end
$var wire 1 L$ Passador1|saida1 [1] $end
$var wire 1 M$ Passador1|saida1 [0] $end
$var wire 1 N$ Passador1|saida0 [7] $end
$var wire 1 O$ Passador1|saida0 [6] $end
$var wire 1 P$ Passador1|saida0 [5] $end
$var wire 1 Q$ Passador1|saida0 [4] $end
$var wire 1 R$ Passador1|saida0 [3] $end
$var wire 1 S$ Passador1|saida0 [2] $end
$var wire 1 T$ Passador1|saida0 [1] $end
$var wire 1 U$ Passador1|saida0 [0] $end
$var wire 1 V$ Passador1|in3 [7] $end
$var wire 1 W$ Passador1|in3 [6] $end
$var wire 1 X$ Passador1|in3 [5] $end
$var wire 1 Y$ Passador1|in3 [4] $end
$var wire 1 Z$ Passador1|in3 [3] $end
$var wire 1 [$ Passador1|in3 [2] $end
$var wire 1 \$ Passador1|in3 [1] $end
$var wire 1 ]$ Passador1|in3 [0] $end
$var wire 1 ^$ Passador1|in2 [7] $end
$var wire 1 _$ Passador1|in2 [6] $end
$var wire 1 `$ Passador1|in2 [5] $end
$var wire 1 a$ Passador1|in2 [4] $end
$var wire 1 b$ Passador1|in2 [3] $end
$var wire 1 c$ Passador1|in2 [2] $end
$var wire 1 d$ Passador1|in2 [1] $end
$var wire 1 e$ Passador1|in2 [0] $end
$var wire 1 f$ sampleIn~combout [7] $end
$var wire 1 g$ sampleIn~combout [6] $end
$var wire 1 h$ sampleIn~combout [5] $end
$var wire 1 i$ sampleIn~combout [4] $end
$var wire 1 j$ sampleIn~combout [3] $end
$var wire 1 k$ sampleIn~combout [2] $end
$var wire 1 l$ sampleIn~combout [1] $end
$var wire 1 m$ sampleIn~combout [0] $end
$var wire 1 n$ RegBank|altsyncram_component|auto_generated|ram_block1a0_PORTADATAOUT_bus [3] $end
$var wire 1 o$ RegBank|altsyncram_component|auto_generated|ram_block1a0_PORTADATAOUT_bus [2] $end
$var wire 1 p$ RegBank|altsyncram_component|auto_generated|ram_block1a0_PORTADATAOUT_bus [1] $end
$var wire 1 q$ RegBank|altsyncram_component|auto_generated|ram_block1a0_PORTADATAOUT_bus [0] $end
$var wire 1 r$ RegBank|altsyncram_component|auto_generated|ram_block1a4_PORTADATAOUT_bus [3] $end
$var wire 1 s$ RegBank|altsyncram_component|auto_generated|ram_block1a4_PORTADATAOUT_bus [2] $end
$var wire 1 t$ RegBank|altsyncram_component|auto_generated|ram_block1a4_PORTADATAOUT_bus [1] $end
$var wire 1 u$ RegBank|altsyncram_component|auto_generated|ram_block1a4_PORTADATAOUT_bus [0] $end
$upscope $end
$upscope $end
$enddefinitions $end
#0
$dumpvars
0!
0"
b1000 #
0$
0%
0-
0,
0+
0*
0)
0(
0'
0&
05
04
03
02
01
00
0/
0.
06
x7
08
19
x:
1;
1<
1=
0>
0?
x@
1A
xB
0C
xD
1E
xF
0G
0H
0I
0J
0K
0L
0M
0N
0O
0P
0Q
0R
0S
0T
0U
0V
0W
0X
0Y
0Z
0[
0\
1]
x^
1_
0`
1a
xb
xc
xd
xe
0f
0g
0h
0i
0j
0k
1l
0m
0n
xo
xp
0q
xr
xs
xt
0u
0v
0w
1x
0y
0z
0{
0|
1}
0~
0!!
1"!
0#!
0$!
0%!
0&!
0'!
1(!
0)!
0*!
0+!
1,!
0-!
1.!
0/!
10!
01!
x2!
x3!
14!
x5!
x6!
07!
x8!
x9!
1:!
x;!
x<!
1=!
0>!
0?!
0@!
0A!
0B!
0C!
0D!
0E!
0F!
0G!
0H!
0I!
1J!
xK!
0L!
0M!
1N!
0O!
0P!
1Q!
0R!
1S!
0T!
0U!
0V!
0W!
0X!
1Y!
0Z!
0[!
0\!
0]!
0^!
0_!
0`!
0a!
0b!
0c!
0d!
0e!
0f!
0g!
0h!
0i!
0j!
0k!
0l!
0m!
0n!
0o!
0p!
0q!
0r!
0s!
0t!
0u!
0v!
0w!
0x!
0y!
0z!
0{!
1|!
0}!
0~!
0!"
0""
1#"
0$"
0%"
0&"
1'"
0("
0)"
0*"
1+"
0,"
0-"
0."
0/"
10"
01"
12"
03"
14"
05"
06"
07"
08"
09"
1:"
0;"
1<"
0="
0>"
0?"
0@"
0A"
0B"
1C"
0D"
0E"
1F"
0G"
1H"
0I"
1J"
0K"
0L"
0M"
0N"
1O"
0P"
0Q"
0R"
1S"
0T"
0U"
0V"
0W"
0X"
0Y"
1Z"
0["
0\"
0]"
0^"
0_"
1`"
0a"
0b"
0c"
0d"
1e"
0f"
0g"
1h"
0i"
1j"
0k"
0l"
0m"
0n"
1o"
0p"
0q"
0r"
0s"
0{"
0z"
0y"
0x"
0w"
0v"
0u"
0t"
0'#
0&#
0%#
0$#
0##
0"#
0!#
0~"
0}"
0|"
00#
0/#
0.#
0-#
0,#
0+#
0*#
0)#
0(#
09#
08#
07#
06#
05#
04#
03#
02#
01#
0C#
0B#
0A#
0@#
0?#
0>#
0=#
0<#
0;#
0:#
zK#
zJ#
zI#
zH#
zG#
0F#
0E#
0D#
0S#
0R#
0Q#
zP#
zO#
zN#
zM#
zL#
0[#
0Z#
0Y#
0X#
0W#
0V#
0U#
0T#
0c#
0b#
0a#
0`#
0_#
0^#
0]#
0\#
zk#
zj#
0i#
0h#
0g#
0f#
0e#
0d#
zs#
zr#
0q#
0p#
0o#
0n#
0m#
0l#
0{#
0z#
0y#
0x#
0w#
0v#
0u#
0t#
0%$
0$$
0#$
0"$
0!$
0~#
0}#
0|#
0-$
0,$
0+$
0*$
0)$
0($
0'$
0&$
05$
04$
03$
02$
01$
00$
0/$
0.$
0=$
0<$
0;$
0:$
09$
08$
z7$
z6$
0E$
0D$
0C$
0B$
0A$
0@$
z?$
z>$
0M$
0L$
0K$
0J$
0I$
0H$
0G$
0F$
0U$
0T$
0S$
0R$
0Q$
0P$
0O$
0N$
z]$
z\$
z[$
zZ$
zY$
zX$
0W$
0V$
ze$
zd$
zc$
zb$
za$
z`$
0_$
0^$
0m$
0l$
0k$
1j$
0i$
0h$
0g$
0f$
0q$
0p$
0o$
0n$
0u$
0t$
0s$
0r$
$end
#5000
1!
1H!
1I!
07
x5#
x6#
x7#
x8#
x9#
xq
x1#
x2#
x3#
x4#
x=!
x^!
x>!
xu
xa
x]
#10000
1$
b10001000 #
b11001000 #
b11101000 #
b11101001 #
0!
1n
1m$
1h$
1g$
1f$
0H!
0I!
17
1@!
1o
08!
05!
02!
0t
0^
0F
0D
0B
0@
0;!
19!
16!
13!
0K!
0>!
0r
1e
1d
1c
1b
1<!
1s
#15000
1!
1H!
1I!
07
xF!
1B!
15#
16#
17#
18#
19#
11#
12#
13#
14#
1n$
1x"
xG!
0o
0=!
0a
0]
1l!
x6
#20000
b11111001 #
b11110001 #
b11110011 #
0$
0!
1l$
0j$
1i$
0n
0H!
0I!
17
#25000
1!
1H!
1I!
07
1R$
1t$
1s$
1r$
1q$
1v"
1u"
1t"
1{"
1r!
1h!
#30000
b11110111 #
b11010111 #
b11010110 #
b11000110 #
b11001110 #
b11001100 #
1$
0!
0m$
0l$
1k$
1j$
0i$
0h$
1n
0H!
0I!
17
#35000
1!
1H!
1I!
07
1J$
1N$
1O$
1P$
1U$
1u$
1p$
0n$
1w"
1z"
0x"
1w!
1X
1W
1u!
1X"
1s!
1V"
1n!
0l!
